{
  "info" : {
    "version" : 1,
    "author" : "xcode"
  },
  "data" : [
    {
      "idiom" : "universal",
      "filename" : "icon_flash_1.svg",
      "universal-type-identifier" : "public.svg-image"
    }
  ]
}